…
1. Create a new factor variable in the dataset with two levels – “weekday” and “weekend” indicating whether a given date is a weekday or weekend day.  Note that we are using imputed data.


```r
dfi <- df_imputed %>% 
    group_by(date) %>% 
    mutate(wd_or_we = ifelse (any(weekdays(date) %in% c("Saturday", "Sunday")), 
                        "weekend", "weekday")) %>%
    group_by(wd_or_we, interval) %>%
    summarize(mean_steps = mean(steps))
dfi
```

```
## Source: local data frame [576 x 3]
## Groups: wd_or_we [?]
## 
##    wd_or_we interval mean_steps
##       <chr>    <int>      <dbl>
## 1   weekday        0 2.28888889
## 2   weekday        5 0.40000000
## 3   weekday       10 0.15555556
## 4   weekday       15 0.17777778
## 5   weekday       20 0.08888889
## 6   weekday       25 1.57777778
## 7   weekday       30 0.75555556
## 8   weekday       35 1.15555556
## 9   weekday       40 0.00000000
## 10  weekday       45 1.73333333
## # ... with 566 more rows
```
…
